<?xml version="1.0" encoding="UTF-8"?>
<!-- Generated by org.testng.reporters.JUnitReportReporter -->
<testsuite hostname="DESKTOP-A81K70M" failures="0" tests="1" name="com.unosquare.FinalPulls" time="5.843" errors="0" timestamp="2022-12-12T12:42:04 CST" skipped="0">
  <testcase classname="com.unosquare.FinalPulls" name="f" time="5.843"/>
  <system-out>
    <![CDATA[Type of post:  Post for successful register
Status for Post: 200
Body for Post: {"id":4,"token":"QpwL5tke4Pnpja7X4"}
Type of post: Post for unsucessful register
Status for Post: 400
Body for Post: {"error":"Missing password"}
Type of post: Post for success create
Status for Post: 201
Body for Post: {"name":"morpheus","job":"leader","id":"704","createdAt":"2022-12-12T18:42:01.715Z"}
Type of post: Post for unsucessful Login
Status for Post: 400
Body for Post: {"error":"Missing password"}
Type of post: Get list of users
Status for Post: 200
Body for Post: {"page":2,"per_page":6,"total":12,"total_pages":2,"data":[{"id":7,"email":"michael.lawson@reqres.in","first_name":"Michael","last_name":"Lawson","avatar":"https://reqres.in/img/faces/7-image.jpg"},{"id":8,"email":"lindsay.ferguson@reqres.in","first_name":"Lindsay","last_name":"Ferguson","avatar":"https://reqres.in/img/faces/8-image.jpg"},{"id":9,"email":"tobias.funke@reqres.in","first_name":"Tobias","last_name":"Funke","avatar":"https://reqres.in/img/faces/9-image.jpg"},{"id":10,"email":"byron.fields@reqres.in","first_name":"Byron","last_name":"Fields","avatar":"https://reqres.in/img/faces/10-image.jpg"},{"id":11,"email":"george.edwards@reqres.in","first_name":"George","last_name":"Edwards","avatar":"https://reqres.in/img/faces/11-image.jpg"},{"id":12,"email":"rachel.howell@reqres.in","first_name":"Rachel","last_name":"Howell","avatar":"https://reqres.in/img/faces/12-image.jpg"}],"support":{"url":"https://reqres.in/#support-heading","text":"To keep ReqRes free, contributions towards server costs are appreciated!"}}
Type of post: Get single user
Status for Post: 200
Body for Post: {"data":{"id":2,"email":"janet.weaver@reqres.in","first_name":"Janet","last_name":"Weaver","avatar":"https://reqres.in/img/faces/2-image.jpg"},"support":{"url":"https://reqres.in/#support-heading","text":"To keep ReqRes free, contributions towards server costs are appreciated!"}}
Type of post: Get no single user found
Status for Post: 404
Body for Post: {}
Type of post: Get list
Status for Post: 200
Body for Post: {"page":1,"per_page":6,"total":12,"total_pages":2,"data":[{"id":1,"name":"cerulean","year":2000,"color":"#98B2D1","pantone_value":"15-4020"},{"id":2,"name":"fuchsia rose","year":2001,"color":"#C74375","pantone_value":"17-2031"},{"id":3,"name":"true red","year":2002,"color":"#BF1932","pantone_value":"19-1664"},{"id":4,"name":"aqua sky","year":2003,"color":"#7BC4C4","pantone_value":"14-4811"},{"id":5,"name":"tigerlily","year":2004,"color":"#E2583E","pantone_value":"17-1456"},{"id":6,"name":"blue turquoise","year":2005,"color":"#53B0AE","pantone_value":"15-5217"}],"support":{"url":"https://reqres.in/#support-heading","text":"To keep ReqRes free, contributions towards server costs are appreciated!"}}
Type of post: Update
Status for Post: 200
Body for Post: {"name":"morpheus","job":"zion resident","updatedAt":"2022-12-12T18:42:04.008Z"}]]>
  </system-out>
</testsuite> <!-- com.unosquare.FinalPulls -->
